<?xml version="1.0" encoding="UTF-8" standalone="no"?>
<!-- Created with Inkscape (http://www.inkscape.org/) -->

<svg
   version="1.1"
   id="svg1116"
   width="485.9213"
   height="325.73526"
   viewBox="0 0 485.9213 325.73526"
   sodipodi:docname="draft-full.svg"
   inkscape:version="1.2.2 (b0a8486541, 2022-12-01)"
   xmlns:inkscape="http://www.inkscape.org/namespaces/inkscape"
   xmlns:sodipodi="http://sodipodi.sourceforge.net/DTD/sodipodi-0.dtd"
   xmlns="http://www.w3.org/2000/svg"
   xmlns:svg="http://www.w3.org/2000/svg">
  <defs
     id="defs1120">
    <marker
       style="overflow:visible"
       id="Arrow1L"
       refX="0"
       refY="0"
       orient="auto-start-reverse"
       inkscape:stockid="Arrow1L"
       markerWidth="8.75"
       markerHeight="5"
       viewBox="0 0 8.75 5"
       inkscape:isstock="true"
       inkscape:collect="always"
       preserveAspectRatio="xMidYMid">
      <path
         style="fill:context-stroke;fill-rule:evenodd;stroke:none"
         d="M 0,0 5,-5 -12.5,0 5,5 Z"
         id="arrow1L"
         transform="scale(-0.5)" />
    </marker>
  </defs>
  <sodipodi:namedview
     id="namedview1118"
     pagecolor="#505050"
     bordercolor="#eeeeee"
     borderopacity="1"
     inkscape:showpageshadow="0"
     inkscape:pageopacity="0"
     inkscape:pagecheckerboard="0"
     inkscape:deskcolor="#505050"
     showgrid="false"
     inkscape:zoom="6.0628362"
     inkscape:cx="260.68657"
     inkscape:cy="225.80191"
     inkscape:window-width="1680"
     inkscape:window-height="985"
     inkscape:window-x="0"
     inkscape:window-y="0"
     inkscape:window-maximized="1"
     inkscape:current-layer="g1122" />
  <g
     id="g1122"
     inkscape:groupmode="layer"
     inkscape:label="demo"
     transform="matrix(1.3333333,0,0,-1.3333333,1.0677133,338.22359)">
    <rect
       style="fill:#989b9a;stroke:none;stroke-width:1.60157;stroke-linecap:round;stroke-linejoin:round;stroke-dasharray:2.25, 2.25;stroke-dashoffset:0;fill-opacity:1"
       id="rect2448"
       width="364.44098"
       height="68.251686"
       x="-0.80078501"
       y="-77.617935"
       transform="scale(1,-1)"
       ry="5.383688" />
    <rect
       style="font-variation-settings:'wght' 700;fill:#ffffff;stroke:#ff0000;stroke-width:1.60157;stroke-linecap:round;stroke-linejoin:round"
       id="rect1436"
       width="134.13969"
       height="17.096222"
       x="14.234322"
       y="-78.452652"
       transform="scale(1,-1)" />
    <rect
       style="font-variation-settings:'wght' 700;fill:#ffffff;stroke:#ff0000;stroke-width:1.60157;stroke-linecap:round;stroke-linejoin:round"
       id="rect1438"
       width="134.13969"
       height="24.392195"
       x="13.43354"
       y="-37.935287"
       transform="scale(1,-1)" />
    <rect
       style="font-variation-settings:'wght' 700;fill:#ffffff;stroke:#ff0000;stroke-width:1.60157;stroke-linecap:round;stroke-linejoin:round"
       id="rect1440"
       width="54.793625"
       height="63.557777"
       x="293.98062"
       y="-76.300087"
       transform="scale(1,-1)" />
    <text
       xml:space="preserve"
       style="font-style:normal;font-weight:normal;font-size:29.9999px;line-height:1.25;font-family:sans-serif;fill:#000000;fill-opacity:1;stroke:none;stroke-width:0.749999"
       x="82.583832"
       y="-45.224655"
       id="text558"
       transform="scale(1,-1)"><tspan
         sodipodi:role="line"
         style="font-style:normal;font-variant:normal;font-weight:normal;font-stretch:normal;font-size:10px;font-family:sans-serif;-inkscape-font-specification:'sans-serif, Normal';font-variant-ligatures:normal;font-variant-caps:normal;font-variant-numeric:normal;font-variant-east-asian:normal;stroke-width:0.749999"
         x="82.583832"
         y="-45.224655"
         id="tspan1469">detect_chunks_auto(     )</tspan></text>
    <text
       xml:space="preserve"
       style="font-style:normal;font-weight:normal;font-size:29.9999px;line-height:1.25;font-family:sans-serif;fill:#000000;fill-opacity:1;stroke:none;stroke-width:0.749999"
       x="63.011185"
       y="-145.69096"
       id="text558-0"
       transform="scale(1,-1)"><tspan
         sodipodi:role="line"
         style="font-style:normal;font-variant:normal;font-weight:normal;font-stretch:normal;font-size:10px;font-family:sans-serif;-inkscape-font-specification:'sans-serif, Normal';font-variant-ligatures:normal;font-variant-caps:normal;font-variant-numeric:normal;font-variant-east-asian:normal;stroke-width:0.749999"
         x="63.011185"
         y="-145.69096"
         id="tspan1469-23">chop_recordings()</tspan></text>
    <text
       xml:space="preserve"
       style="font-style:normal;font-weight:normal;font-size:29.9999px;line-height:1.25;font-family:sans-serif;fill:#000000;fill-opacity:1;stroke:none;stroke-width:0.749999"
       x="178.81194"
       y="-20.046516"
       id="text558-9"
       transform="scale(1,-1)"><tspan
         sodipodi:role="line"
         style="font-style:normal;font-variant:normal;font-weight:normal;font-stretch:normal;font-size:10px;font-family:sans-serif;-inkscape-font-specification:'sans-serif, Normal';font-variant-ligatures:normal;font-variant-caps:normal;font-variant-numeric:normal;font-variant-east-asian:normal;stroke-width:0.749999"
         x="178.81194"
         y="-20.046516"
         id="tspan1469-2">dispatch_chunks()</tspan></text>
    <text
       xml:space="preserve"
       style="font-style:normal;font-weight:normal;font-size:29.9999px;line-height:1.25;font-family:sans-serif;fill:#000000;fill-opacity:1;stroke:none;stroke-width:0.749999"
       x="141.01067"
       y="-242.76831"
       id="text558-9-9"
       transform="scale(1,-1)"><tspan
         sodipodi:role="line"
         style="font-style:normal;font-variant:normal;font-weight:normal;font-stretch:normal;font-size:10px;font-family:sans-serif;-inkscape-font-specification:'sans-serif, Normal';font-variant-ligatures:normal;font-variant-caps:normal;font-variant-numeric:normal;font-variant-east-asian:normal;stroke-width:0.749999"
         x="141.01067"
         y="-242.76831"
         id="tspan1469-2-2">dispatch_chunks()</tspan></text>
    <path
       style="fill:none;stroke:#000000;stroke-width:0.75px;stroke-linecap:butt;stroke-linejoin:miter;stroke-opacity:1"
       d="M 55.326439,60.555647 C 62.149693,54.254554 64.45603,48.2676 54.559432,38.736077"
       id="path1500"
       sodipodi:nodetypes="cc" />
    <path
       style="fill:none;stroke:#000000;stroke-width:0.75px;stroke-linecap:butt;stroke-linejoin:miter;stroke-opacity:1"
       d="M 147.57323,19.62171 C 196.15836,9.0294126 244.63867,9.21798 293.17984,19.372297"
       id="path1502"
       sodipodi:nodetypes="cc" />
    <rect
       style="fill:#ffffff;stroke:#ff0000;stroke-width:1.60157;stroke-linecap:round;stroke-linejoin:round"
       id="rect1533"
       width="149.70517"
       height="72.471695"
       x="13.861239"
       y="-239.02711"
       transform="scale(1,-1)" />
    <rect
       style="fill:#ffffff;stroke:#ff0000;stroke-width:1.60157;stroke-linecap:round;stroke-linejoin:round"
       id="rect1535"
       width="148.13004"
       height="28.066925"
       x="16.23716"
       y="-131.51697"
       transform="scale(1,-1)" />
    <rect
       style="fill:#ffffff;stroke:#ff0000;stroke-width:1.60157;stroke-linecap:round;stroke-linejoin:round"
       id="rect1537"
       width="151.14027"
       height="73.837265"
       x="207.64311"
       y="-239.59187"
       transform="scale(1,-1)" />
    <rect
       style="fill:#ffffff;stroke:#ff0000;stroke-width:1.60157;stroke-linecap:round;stroke-linejoin:round"
       id="rect1539"
       width="68.705727"
       height="74.03466"
       x="208.44389"
       y="-153.2881"
       transform="scale(1,-1)" />
    <path
       style="fill:none;fill-rule:evenodd;stroke:#000000;stroke-width:0.75px;stroke-linecap:butt;stroke-linejoin:miter;stroke-dasharray:2.25, 2.25;stroke-dashoffset:0;stroke-opacity:1;marker-start:url(#Arrow1L)"
       d="m 184.8889,52.824655 c -0.61684,12.948663 16.7117,12.815718 27.77665,12.656729 11.3135,-0.16256 30.13121,-0.108891 30.13121,13.772056"
       id="path1588"
       inkscape:connector-type="polyline"
       inkscape:connector-curvature="0"
       sodipodi:nodetypes="csc" />
    <path
       style="fill:none;stroke:#000000;stroke-width:0.75px;stroke-linecap:butt;stroke-linejoin:miter;stroke-opacity:1"
       d="m 164.3672,226.74354 c 13.45316,7.99057 27.58437,8.20617 42.47513,-0.28761"
       id="path2434"
       sodipodi:nodetypes="cc" />
    <path
       style="fill:none;stroke:#000000;stroke-width:0.75px;stroke-linecap:butt;stroke-linejoin:miter;stroke-opacity:1"
       d="m 47.258697,132.31776 c 12.96032,12.9075 7.211818,23.65697 0,34.23766"
       id="path2436"
       sodipodi:nodetypes="cc" />
  </g>
</svg>
